
{
  "pagination": {
    "current_page": 1,
    "page_count": 9,
    "page_size": 25,
    "total_records": 205,
    "next_page": 2,
    "prev_page": null,
    "is_first_page": true,
    "is_last_page": false
  },
  "data": [
    {
      "id": 8363,
      "index": 205,
      "name": "Turkeeee",
      "subtitle": "gobble",
      "name_with_subtitle": "Turkeeee gobble",
      "brand": "ms",
      "classic": false,
      "delivery_dates": [
        "2018-03-07",
        "2018-03-05",
        "2017-12-08",
        "2017-12-12",
        "2017-11-21",
        "2017-11-20",
        "2017-11-19"
      ],
      "slug": "8363-turkeeee-gobble",
      "product_type": "add_on",
      "meal_attributes": [],
      "meal_type": "meat",
      "url": "https://staging.api.marleyspoon.com/recipes/8363.json",
      "image": {
        "thumbnail": "https://mscdn-staging.freetls.fastly.net/media/recipes/8363/main_photos/thumb/giant_image-13b40d4c1e776416cf76beb1e05bebc1.png",
        "small": "https://mscdn-staging.freetls.fastly.net/media/recipes/8363/main_photos/small/giant_image-13b40d4c1e776416cf76beb1e05bebc1.png",
        "medium": "https://mscdn-staging.freetls.fastly.net/media/recipes/8363/main_photos/medium/giant_image-13b40d4c1e776416cf76beb1e05bebc1.png",
        "large": "https://mscdn-staging.freetls.fastly.net/media/recipes/8363/main_photos/large/giant_image-13b40d4c1e776416cf76beb1e05bebc1.png"
      },
      "score": 5,
      "meal_attributes_translated": []
    },
    {
      "id": 8361,
      "index": 204,
      "name": "Test Add On Recipe",
      "subtitle": "that simply pops with flavor",
      "name_with_subtitle": "Test Add On Recipe that simply pops with flavor",
      "brand": "ms",
      "classic": false,
      "delivery_dates": [
        "2018-03-08",
        "2018-04-04",
        "2018-03-04",
        "2018-03-07",
        "2018-03-05",
        "2017-11-25",
        "2017-11-24",
        "2017-11-23",
        "2017-11-22",
        "2017-11-21",
        "2017-11-20",
        "2017-10-07",
        "2017-10-06",
        "2017-10-05",
        "2017-10-04",
        "2017-10-03",
        "2017-10-02",
        "2017-10-01"
      ],
      "slug": "8361-test-add-on-recipe-that-simply-pops-with-flavor",
      "product_type": "add_on",
      "meal_attributes": [],
      "meal_type": "meat",
      "url": "https://staging.api.marleyspoon.com/recipes/8361.json",
      "image": {
        "thumbnail": "https://mscdn-staging.freetls.fastly.net/media/recipes/8361/main_photos/thumb/FS__SKU0811_web-3f7e2bcda60c6b0a6a930371ef9b0258.jpg",
        "small": "https://mscdn-staging.freetls.fastly.net/media/recipes/8361/main_photos/small/FS__SKU0811_web-3f7e2bcda60c6b0a6a930371ef9b0258.jpg",
        "medium": "https://mscdn-staging.freetls.fastly.net/media/recipes/8361/main_photos/medium/FS__SKU0811_web-3f7e2bcda60c6b0a6a930371ef9b0258.jpg",
        "large": "https://mscdn-staging.freetls.fastly.net/media/recipes/8361/main_photos/large/FS__SKU0811_web-3f7e2bcda60c6b0a6a930371ef9b0258.jpg"
      },
      "score": 5,
      "meal_attributes_translated": []
    },
    {
      "id": 8358,
      "index": 202,
      "name": "test_multiple_products",
      "subtitle": "with other stuff",
      "name_with_subtitle": "test_multiple_products with other stuff",
      "brand": "ms",
      "classic": false,
      "delivery_dates": [
        "2017-06-11",
        "2017-06-10",
        "2017-06-09",
        "2017-06-08",
        "2017-06-07",
        "2017-06-06",
        "2017-06-05"
      ],
      "slug": "8358-test_multiple_products-with-other-stuff",
      "product_type": "z_amazon",
      "meal_attributes": [
        "spicy",
        "low_calorie",
        "under_30min",
        "meat"
      ],
      "meal_type": "fish",
      "url": "https://staging.api.marleyspoon.com/recipes/8358.json",
      "image": {
        "thumbnail": "https://mscdn-staging.freetls.fastly.net/media/recipes/8358/main_photos/thumb/playimage-f1ebf3863ca8c8e044543a856ef34781.jpg",
        "small": "https://mscdn-staging.freetls.fastly.net/media/recipes/8358/main_photos/small/playimage-f1ebf3863ca8c8e044543a856ef34781.jpg",
        "medium": "https://mscdn-staging.freetls.fastly.net/media/recipes/8358/main_photos/medium/playimage-f1ebf3863ca8c8e044543a856ef34781.jpg",
        "large": "https://mscdn-staging.freetls.fastly.net/media/recipes/8358/main_photos/large/playimage-f1ebf3863ca8c8e044543a856ef34781.jpg"
      },
      "score": 5,
      "meal_attributes_translated": [
        "spicy",
        "low-calorie",
        "under 30 minutes",
        "meat"
      ]
    }
  ]
}
